{
    "dossierParlementaire": {
        "@xsi:type": "DossierLegislatif_Type",
        "actesLegislatifs": {
            "acteLegislatif": [
                {
                    "@xsi:type": "Etape_Type",
                    "actesLegislatifs": {
                        "acteLegislatif": [
                            {
                                "@xsi:type": "DepotInitiative_Type",
                                "actesLegislatifs": null,
                                "codeActe": "SN1-DEPOT",
                                "dateActe": "2016-07-13T00:00:00.000+02:00",
                                "libelleActe": {
                                    "libelleCourt": "1er d\u00e9p\u00f4t d'une initiative.",
                                    "nomCanonique": "1er d\u00e9p\u00f4t d'une initiative."
                                },
                                "organeRef": "PO78718",
                                "texteAssocie": "PIONSNR5S259B0792",
                                "uid": "L14-VD184026DI"
                            },
                            {
                                "@xsi:type": "Etape_Type",
                                "actesLegislatifs": {
                                    "acteLegislatif": {
                                        "@xsi:type": "Etape_Type",
                                        "actesLegislatifs": {
                                            "acteLegislatif": [
                                                {
                                                    "@xsi:type": "SaisieComFond_Type",
                                                    "actesLegislatifs": null,
                                                    "codeActe": "SN1-COM-FOND-SAISIE",
                                                    "dateActe": "2016-07-13T00:00:00.000+02:00",
                                                    "libelleActe": {
                                                        "libelleCourt": "Renvoi en commission au fond",
                                                        "nomCanonique": "Renvoi en commission au fond"
                                                    },
                                                    "organeRef": "PO211493",
                                                    "uid": "L14-VD184027CFS"
                                                },
                                                {
                                                    "@xsi:type": "NominRapporteurs_Type",
                                                    "actesLegislatifs": null,
                                                    "codeActe": "SN1-COM-FOND-NOMIN",
                                                    "dateActe": "2018-01-17T00:00:00.000+01:00",
                                                    "libelleActe": {
                                                        "libelleCourt": "Nomination de rapporteur",
                                                        "nomCanonique": "Nomination de rapporteur"
                                                    },
                                                    "organeRef": "PO211493",
                                                    "rapporteurs": {
                                                        "rapporteur": {
                                                            "acteurRef": "PA736225",
                                                            "typeRapporteur": "rapporteur"
                                                        }
                                                    },
                                                    "reunion": null,
                                                    "uid": "L14-VD184267"
                                                },
                                                {
                                                    "@xsi:type": "DepotRapport_Type",
                                                    "actesLegislatifs": null,
                                                    "codeActe": "SN1-COM-FOND-RAPPORT",
                                                    "dateActe": "2018-01-24T00:00:00.000+01:00",
                                                    "libelleActe": {
                                                        "libelleCourt": "D\u00e9p\u00f4t de rapport",
                                                        "nomCanonique": "D\u00e9p\u00f4t de rapport"
                                                    },
                                                    "organeRef": "PO211493",
                                                    "texteAdopte": null,
                                                    "texteAssocie": "RAPPSNR5S299B0236",
                                                    "uid": "L14-VD184284"
                                                }
                                            ]
                                        },
                                        "codeActe": "SN1-COM-FOND",
                                        "dateActe": null,
                                        "libelleActe": {
                                            "libelleCourt": "Travaux de la commission saisie au fond",
                                            "nomCanonique": "Travaux de la commission saisie au fond"
                                        },
                                        "organeRef": "PO211493",
                                        "uid": "L14-VD184027CF"
                                    }
                                },
                                "codeActe": "SN1-COM",
                                "dateActe": null,
                                "libelleActe": {
                                    "libelleCourt": "Travaux des commissions",
                                    "nomCanonique": "Travaux des commissions"
                                },
                                "organeRef": "PO78718",
                                "uid": "L14-SN1-COM-36252"
                            },
                            {
                                "@xsi:type": "Etape_Type",
                                "actesLegislatifs": {
                                    "acteLegislatif": [
                                        {
                                            "@xsi:type": "DiscussionSeancePublique_Type",
                                            "actesLegislatifs": null,
                                            "codeActe": "SN1-DEBATS-SEANCE",
                                            "dateActe": "2018-02-01T00:00:00.000+01:00",
                                            "libelleActe": {
                                                "libelleCourt": "Discussion en s\u00e9ance publique",
                                                "nomCanonique": "Discussion en s\u00e9ance publique"
                                            },
                                            "odjRef": "RUSNR5L15S2018IDS20882PT35472",
                                            "organeRef": "PO78718",
                                            "reunionRef": "RUSNR5L15S2018IDS20882",
                                            "uid": "L15-VD184028S35472"
                                        },
                                        {
                                            "@xsi:type": "Decision_Type",
                                            "actesLegislatifs": null,
                                            "codeActe": "SN1-DEBATS-DEC",
                                            "dateActe": "2018-02-01T00:00:00.000+01:00",
                                            "libelleActe": {
                                                "libelleCourt": "D\u00e9cision",
                                                "nomCanonique": "D\u00e9cision"
                                            },
                                            "organeRef": "PO78718",
                                            "reunionRef": "RUSNR5L15S2018IDS20882",
                                            "statutConclusion": {
                                                "fam_code": "TSORTF01",
                                                "libelle": "adopt\u00e9e"
                                            },
                                            "textesAssocies": {
                                                "texteAssocie": {
                                                    "refTexteAssocie": "PIONSNR5S299BTA0055",
                                                    "typeTexte": "BTA"
                                                }
                                            },
                                            "uid": "L15-VD184364DEC",
                                            "voteRefs": null
                                        }
                                    ]
                                },
                                "codeActe": "SN1-DEBATS",
                                "dateActe": null,
                                "libelleActe": {
                                    "libelleCourt": "Discussion en s\u00e9ance publique",
                                    "nomCanonique": "Discussion en s\u00e9ance publique"
                                },
                                "organeRef": "PO78718",
                                "uid": "L14-SN1-DEBATS-36252"
                            }
                        ]
                    },
                    "codeActe": "SN1",
                    "dateActe": null,
                    "libelleActe": {
                        "libelleCourt": "1\u00e8re lecture",
                        "nomCanonique": "1\u00e8re lecture (1\u00e8re assembl\u00e9e saisie)"
                    },
                    "organeRef": "PO78718",
                    "uid": "L14-SN1-36252"
                },
                {
                    "@xsi:type": "Etape_Type",
                    "actesLegislatifs": {
                        "acteLegislatif": [
                            {
                                "@xsi:type": "DepotInitiativeNavette_Type",
                                "actesLegislatifs": null,
                                "codeActe": "AN1-DEPOT",
                                "dateActe": "2018-02-01T00:00:00.000+01:00",
                                "libelleActe": {
                                    "libelleCourt": "D\u00e9p\u00f4t d'une initiative en navette",
                                    "nomCanonique": "D\u00e9p\u00f4t d'une initiative en navette"
                                },
                                "organeRef": "PO717460",
                                "provenance": "PO78718",
                                "texteAssocie": "PIONANR5L15B0630",
                                "uid": "L15-VD184365DIN"
                            },
                            {
                                "@xsi:type": "Etape_Type",
                                "actesLegislatifs": {
                                    "acteLegislatif": {
                                        "@xsi:type": "Etape_Type",
                                        "actesLegislatifs": {
                                            "acteLegislatif": {
                                                "@xsi:type": "SaisieComFond_Type",
                                                "actesLegislatifs": null,
                                                "codeActe": "AN1-COM-FOND-SAISIE",
                                                "dateActe": "2018-02-01T00:00:00.000+01:00",
                                                "libelleActe": {
                                                    "libelleCourt": "Renvoi en commission au fond",
                                                    "nomCanonique": "Renvoi en commission au fond"
                                                },
                                                "organeRef": "PO420120",
                                                "uid": "L15-VD184366CFS"
                                            }
                                        },
                                        "codeActe": "AN1-COM-FOND",
                                        "dateActe": null,
                                        "libelleActe": {
                                            "libelleCourt": "Travaux de la commission saisie au fond",
                                            "nomCanonique": "Travaux de la commission saisie au fond"
                                        },
                                        "organeRef": "PO420120",
                                        "uid": "L15-VD184366CF"
                                    }
                                },
                                "codeActe": "AN1-COM",
                                "dateActe": null,
                                "libelleActe": {
                                    "libelleCourt": "Travaux des commissions",
                                    "nomCanonique": "Travaux des commissions"
                                },
                                "organeRef": "PO717460",
                                "uid": "L15-AN1-COM-36252"
                            }
                        ]
                    },
                    "codeActe": "AN1",
                    "dateActe": null,
                    "libelleActe": {
                        "libelleCourt": "1\u00e8re lecture",
                        "nomCanonique": "1\u00e8re lecture (2\u00e8me assembl\u00e9e saisie)"
                    },
                    "organeRef": "PO717460",
                    "uid": "L15-AN1-36252"
                }
            ]
        },
        "fusionDossier": null,
        "initiateur": {
            "acteurs": {
                "acteur": {
                    "acteurRef": "PA415488",
                    "mandatRef": "PM703558"
                }
            },
            "organes": {
                "organe": {
                    "organeRef": {
                        "uid": "PO78718"
                    }
                }
            }
        },
        "legislature": "14",
        "procedureParlementaire": {
            "code": "2",
            "libelle": "Proposition de loi ordinaire"
        },
        "titreDossier": {
            "senatChemin": "https://www.senat.fr/dossier-legislatif/ppl15-792.html",
            "titre": "Questions sociales et sant\u00e9 : fonds d'indemnisation des victimes des produits phytopharmaceutiques",
            "titreChemin": "fonds_indemnisation_victimes_produits_phytopharmaceutiques"
        },
        "uid": "DLR5L14N36252"
    }
}
