{
    "dossierParlementaire": {
        "@xmlns": "http://schemas.assemblee-nationale.fr/referentiel",
        "@xmlns:xsi": "http://www.w3.org/2001/XMLSchema-instance",
        "@xsi:type": "DossierLegislatif_Type",
        "actesLegislatifs": {
            "acteLegislatif": [
                {
                    "@xsi:type": "Etape_Type",
                    "actesLegislatifs": {
                        "acteLegislatif": [
                            {
                                "@xsi:type": "DepotInitiative_Type",
                                "actesLegislatifs": null,
                                "codeActe": "SN1-DEPOT",
                                "dateActe": "2017-06-14T00:00:00.000+02:00",
                                "libelleActe": {
                                    "libelleCourt": "1er d\u00e9p\u00f4t d'une initiative.",
                                    "nomCanonique": "1er d\u00e9p\u00f4t d'une initiative."
                                },
                                "organeRef": "PO78718",
                                "texteAssocie": "PRJLSNR5S279B0580",
                                "uid": "L14-VD181921DI"
                            },
                            {
                                "@xsi:type": "EtudeImpact_Type",
                                "actesLegislatifs": null,
                                "codeActe": "SN1-ETI",
                                "contributionInternaute": {
                                    "dateFermeture": null
                                },
                                "dateActe": "2017-06-14T00:00:00.000+02:00",
                                "libelleActe": {
                                    "libelleCourt": "Etude d'impact",
                                    "nomCanonique": "Etude d'impact"
                                },
                                "organeRef": "PO78718",
                                "texteAssocie": "ETDISNR5S279B0580",
                                "uid": "L14-VD181921ETI"
                            },
                            {
                                "@xsi:type": "DepotAvisConseilEtat_Type",
                                "actesLegislatifs": null,
                                "codeActe": "SN1-AVCE",
                                "dateActe": "2017-06-14T00:00:00.000+02:00",
                                "libelleActe": {
                                    "libelleCourt": "Avis du Conseil d'Etat",
                                    "nomCanonique": "Avis du Conseil d'Etat"
                                },
                                "organeRef": "PO78718",
                                "texteAssocie": "AVCESNR5S279B0580",
                                "uid": "L14-VD181921AVCE"
                            },
                            {
                                "@xsi:type": "ProcedureAccelere_Type",
                                "actesLegislatifs": null,
                                "codeActe": "SN1-PROCACC",
                                "dateActe": "2017-06-14T00:00:00.000+02:00",
                                "libelleActe": {
                                    "libelleCourt": "Le gouvernement d\u00e9clare l'urgence / engage la proc\u00e9dure acc\u00e9l\u00e9r\u00e9e",
                                    "nomCanonique": "Le gouvernement d\u00e9clare l'urgence / engage la proc\u00e9dure acc\u00e9l\u00e9r\u00e9e"
                                },
                                "organeRef": "PO717173",
                                "uid": "L15-VD181925"
                            },
                            {
                                "@xsi:type": "Etape_Type",
                                "actesLegislatifs": {
                                    "acteLegislatif": [
                                        {
                                            "@xsi:type": "Etape_Type",
                                            "actesLegislatifs": {
                                                "acteLegislatif": [
                                                    {
                                                        "@xsi:type": "SaisieComFond_Type",
                                                        "actesLegislatifs": null,
                                                        "codeActe": "SN1-COM-FOND-SAISIE",
                                                        "dateActe": "2017-06-14T00:00:00.000+02:00",
                                                        "libelleActe": {
                                                            "libelleCourt": "Renvoi en commission au fond",
                                                            "nomCanonique": "Renvoi en commission au fond"
                                                        },
                                                        "organeRef": "PO211495",
                                                        "uid": "L14-VD181922CFS"
                                                    },
                                                    {
                                                        "@xsi:type": "NominRapporteurs_Type",
                                                        "actesLegislatifs": null,
                                                        "codeActe": "SN1-COM-FOND-NOMIN",
                                                        "dateActe": null,
                                                        "libelleActe": {
                                                            "libelleCourt": "Nomination de rapporteur",
                                                            "nomCanonique": "Nomination de rapporteur"
                                                        },
                                                        "organeRef": "PO211495",
                                                        "rapporteurs": {
                                                            "rapporteur": {
                                                                "acteurRef": "PA429858",
                                                                "typeRapporteur": "rapporteur"
                                                            }
                                                        },
                                                        "reunion": null,
                                                        "uid": "L15-VD182041"
                                                    },
                                                    {
                                                        "@xsi:type": "DepotRapport_Type",
                                                        "actesLegislatifs": null,
                                                        "codeActe": "SN1-COM-FOND-RAPPORT",
                                                        "dateActe": "2017-07-04T00:00:00.000+02:00",
                                                        "libelleActe": {
                                                            "libelleCourt": "D\u00e9p\u00f4t de rapport",
                                                            "nomCanonique": "D\u00e9p\u00f4t de rapport"
                                                        },
                                                        "organeRef": "PO211495",
                                                        "texteAdopte": "PRJLSNR5S279BTC0608",
                                                        "texteAssocie": "RAPPSNR5S279B0607",
                                                        "uid": "L15-VD182056"
                                                    }
                                                ]
                                            },
                                            "codeActe": "SN1-COM-FOND",
                                            "dateActe": null,
                                            "libelleActe": {
                                                "libelleCourt": "Travaux de la commission saisie au fond",
                                                "nomCanonique": "Travaux de la commission saisie au fond"
                                            },
                                            "organeRef": "PO211495",
                                            "uid": "L14-VD181922CF"
                                        },
                                        {
                                            "@xsi:type": "Etape_Type",
                                            "actesLegislatifs": {
                                                "acteLegislatif": [
                                                    {
                                                        "@xsi:type": "SaisieComAvis_Type",
                                                        "actesLegislatifs": null,
                                                        "codeActe": "SN1-COM-AVIS-SAISIE",
                                                        "dateActe": "2017-06-21T00:00:00.000+02:00",
                                                        "libelleActe": {
                                                            "libelleCourt": "Saisine pour avis d'une commission",
                                                            "nomCanonique": "Saisine pour avis d'une commission"
                                                        },
                                                        "organeRef": "PO211494",
                                                        "uid": "L15-VD182037CAS"
                                                    },
                                                    {
                                                        "@xsi:type": "NominRapporteurs_Type",
                                                        "actesLegislatifs": null,
                                                        "codeActe": "SN1-COM-AVIS-NOMIN",
                                                        "dateActe": null,
                                                        "libelleActe": {
                                                            "libelleCourt": "Nomination de rapporteur",
                                                            "nomCanonique": "Nomination de rapporteur"
                                                        },
                                                        "organeRef": "PO211494",
                                                        "rapporteurs": {
                                                            "rapporteur": {
                                                                "acteurRef": "PA415448",
                                                                "typeRapporteur": "rapporteur pour avis"
                                                            }
                                                        },
                                                        "reunion": null,
                                                        "uid": "L15-VD182039"
                                                    },
                                                    {
                                                        "@xsi:type": "DepotRapport_Type",
                                                        "actesLegislatifs": null,
                                                        "codeActe": "SN1-COM-AVIS-RAPPORT",
                                                        "dateActe": "2017-07-04T00:00:00.000+02:00",
                                                        "libelleActe": {
                                                            "libelleCourt": "D\u00e9p\u00f4t de rapport",
                                                            "nomCanonique": "D\u00e9p\u00f4t de rapport"
                                                        },
                                                        "organeRef": "PO211494",
                                                        "texteAdopte": null,
                                                        "texteAssocie": "AVISSNR5S279B0602",
                                                        "uid": "L15-VD182058"
                                                    }
                                                ]
                                            },
                                            "codeActe": "SN1-COM-AVIS",
                                            "dateActe": null,
                                            "libelleActe": {
                                                "libelleCourt": "Travaux d'une commission saisie pour avis",
                                                "nomCanonique": "Travaux d'une commission saisie pour avis"
                                            },
                                            "organeRef": "PO211494",
                                            "uid": "L15-VD182037CA"
                                        }
                                    ]
                                },
                                "codeActe": "SN1-COM",
                                "dateActe": null,
                                "libelleActe": {
                                    "libelleCourt": "Travaux des commissions",
                                    "nomCanonique": "Travaux des commissions"
                                },
                                "organeRef": "PO78718",
                                "uid": "L14-SN1-COM-35824"
                            },
                            {
                                "@xsi:type": "Etape_Type",
                                "actesLegislatifs": {
                                    "acteLegislatif": [
                                        {
                                            "@xsi:type": "DiscussionSeancePublique_Type",
                                            "actesLegislatifs": null,
                                            "codeActe": "SN1-DEBATS-SEANCE",
                                            "dateActe": "2017-07-10T00:00:00.000+02:00",
                                            "libelleActe": {
                                                "libelleCourt": "Discussion en s\u00e9ance publique",
                                                "nomCanonique": "Discussion en s\u00e9ance publique"
                                            },
                                            "odjRef": "RUSNR5L15S2017IDS20639PT34977",
                                            "organeRef": "PO78718",
                                            "reunionRef": "RUSNR5L15S2017IDS20639",
                                            "uid": "L15-VD182005S34977"
                                        },
                                        {
                                            "@xsi:type": "DiscussionSeancePublique_Type",
                                            "actesLegislatifs": null,
                                            "codeActe": "SN1-DEBATS-SEANCE",
                                            "dateActe": "2017-07-11T00:00:00.000+02:00",
                                            "libelleActe": {
                                                "libelleCourt": "Discussion en s\u00e9ance publique",
                                                "nomCanonique": "Discussion en s\u00e9ance publique"
                                            },
                                            "odjRef": "RUSNR5L15S2017IDS20640PT34979",
                                            "organeRef": "PO78718",
                                            "reunionRef": "RUSNR5L15S2017IDS20640",
                                            "uid": "L15-VD182005S34979"
                                        },
                                        {
                                            "@xsi:type": "DiscussionSeancePublique_Type",
                                            "actesLegislatifs": null,
                                            "codeActe": "SN1-DEBATS-SEANCE",
                                            "dateActe": "2017-07-12T00:00:00.000+02:00",
                                            "libelleActe": {
                                                "libelleCourt": "Discussion en s\u00e9ance publique",
                                                "nomCanonique": "Discussion en s\u00e9ance publique"
                                            },
                                            "odjRef": "RUSNR5L15S2017IDS20641PT34981",
                                            "organeRef": "PO78718",
                                            "reunionRef": "RUSNR5L15S2017IDS20641",
                                            "uid": "L15-VD182005S34981"
                                        },
                                        {
                                            "@xsi:type": "DiscussionSeancePublique_Type",
                                            "actesLegislatifs": null,
                                            "codeActe": "SN1-DEBATS-SEANCE",
                                            "dateActe": "2017-07-13T00:00:00.000+02:00",
                                            "libelleActe": {
                                                "libelleCourt": "Discussion en s\u00e9ance publique",
                                                "nomCanonique": "Discussion en s\u00e9ance publique"
                                            },
                                            "odjRef": "RUSNR5L15S2017IDS20660PT35021",
                                            "organeRef": "PO78718",
                                            "reunionRef": "RUSNR5L15S2017IDS20660",
                                            "uid": "L15-VD182005S35021"
                                        },
                                        {
                                            "@xsi:type": "Decision_Type",
                                            "actesLegislatifs": null,
                                            "codeActe": "SN1-DEBATS-DEC",
                                            "dateActe": "2017-07-13T00:00:00.000+02:00",
                                            "libelleActe": {
                                                "libelleCourt": "D\u00e9cision",
                                                "nomCanonique": "D\u00e9cision"
                                            },
                                            "organeRef": "PO78718",
                                            "reunionRef": "RUSNR5L15S2017IDS20660",
                                            "statutConclusion": {
                                                "fam_code": "TSORTF01",
                                                "libelle": "adopt\u00e9"
                                            },
                                            "textesAssocies": {
                                                "texteAssocie": {
                                                    "refTexteAssocie": "PRJLSNR5S279BTA0114",
                                                    "typeTexte": "BTA"
                                                }
                                            },
                                            "uid": "L15-VD182245DEC",
                                            "voteRefs": null
                                        }
                                    ]
                                },
                                "codeActe": "SN1-DEBATS",
                                "dateActe": null,
                                "libelleActe": {
                                    "libelleCourt": "Discussion en s\u00e9ance publique",
                                    "nomCanonique": "Discussion en s\u00e9ance publique"
                                },
                                "organeRef": "PO78718",
                                "uid": "L15-SN1-DEBATS-35824"
                            }
                        ]
                    },
                    "codeActe": "SN1",
                    "dateActe": null,
                    "libelleActe": {
                        "libelleCourt": "1\u00e8re lecture",
                        "nomCanonique": "1\u00e8re lecture (1\u00e8re assembl\u00e9e saisie)"
                    },
                    "organeRef": "PO78718",
                    "uid": "L14-SN1-35824"
                },
                {
                    "@xsi:type": "Etape_Type",
                    "actesLegislatifs": {
                        "acteLegislatif": [
                            {
                                "@xsi:type": "DepotInitiativeNavette_Type",
                                "actesLegislatifs": null,
                                "codeActe": "AN1-DEPOT",
                                "dateActe": "2017-07-13T00:00:00.000+02:00",
                                "depotInitialLectureDefinitiveRef": null,
                                "libelleActe": {
                                    "libelleCourt": "D\u00e9p\u00f4t d'une initiative en navette",
                                    "nomCanonique": "D\u00e9p\u00f4t d'une initiative en navette"
                                },
                                "organeRef": "PO717460",
                                "provenance": "PO78718",
                                "texteAssocie": "PRJLANR5L15B0099",
                                "uid": "L15-VD182248DIN"
                            },
                            {
                                "@xsi:type": "Etape_Type",
                                "actesLegislatifs": {
                                    "acteLegislatif": [
                                        {
                                            "@xsi:type": "Etape_Type",
                                            "actesLegislatifs": {
                                                "acteLegislatif": [
                                                    {
                                                        "@xsi:type": "SaisieComFond_Type",
                                                        "actesLegislatifs": null,
                                                        "codeActe": "AN1-COM-FOND-SAISIE",
                                                        "dateActe": "2017-07-13T00:00:00.000+02:00",
                                                        "libelleActe": {
                                                            "libelleCourt": "Renvoi en commission au fond",
                                                            "nomCanonique": "Renvoi en commission au fond"
                                                        },
                                                        "organeRef": "PO59051",
                                                        "uid": "L15-VD182249CFS"
                                                    },
                                                    {
                                                        "@xsi:type": "NominRapporteurs_Type",
                                                        "actesLegislatifs": null,
                                                        "codeActe": "AN1-COM-FOND-NOMIN",
                                                        "dateActe": "2017-07-05T00:00:00.000+02:00",
                                                        "libelleActe": {
                                                            "libelleCourt": "Nomination de rapporteur",
                                                            "nomCanonique": "Nomination de rapporteur"
                                                        },
                                                        "organeRef": "PO59051",
                                                        "rapporteurs": {
                                                            "rapporteur": {
                                                                "acteurRef": "PA721908",
                                                                "typeRapporteur": "rapporteur"
                                                            }
                                                        },
                                                        "reunion": null,
                                                        "uid": "L15-VD182307"
                                                    },
                                                    {
                                                        "@xsi:type": "DiscussionCommission_Type",
                                                        "actesLegislatifs": null,
                                                        "codeActe": "AN1-COM-FOND-REUNION",
                                                        "dateActe": "2017-07-18T15:00:00.000+02:00",
                                                        "libelleActe": {
                                                            "libelleCourt": "R\u00e9union de commission",
                                                            "nomCanonique": "R\u00e9union de commission"
                                                        },
                                                        "odjRef": "RUANR5L15S2017IDC427110PT24912",
                                                        "organeRef": "PO59051",
                                                        "reunionRef": "RUANR5L15S2017IDC427110",
                                                        "uid": "L15-VD182251R24912"
                                                    },
                                                    {
                                                        "@xsi:type": "DiscussionCommission_Type",
                                                        "actesLegislatifs": null,
                                                        "codeActe": "AN1-COM-FOND-REUNION",
                                                        "dateActe": "2017-07-19T10:15:00.000+02:00",
                                                        "libelleActe": {
                                                            "libelleCourt": "R\u00e9union de commission",
                                                            "nomCanonique": "R\u00e9union de commission"
                                                        },
                                                        "odjRef": "RUANR5L15S2017IDC427111PT24914",
                                                        "organeRef": "PO59051",
                                                        "reunionRef": "RUANR5L15S2017IDC427111",
                                                        "uid": "L15-VD182251R24914"
                                                    },
                                                    {
                                                        "@xsi:type": "DiscussionCommission_Type",
                                                        "actesLegislatifs": null,
                                                        "codeActe": "AN1-COM-FOND-REUNION",
                                                        "dateActe": "2017-07-19T16:30:00.000+02:00",
                                                        "libelleActe": {
                                                            "libelleCourt": "R\u00e9union de commission",
                                                            "nomCanonique": "R\u00e9union de commission"
                                                        },
                                                        "odjRef": "RUANR5L15S2017IDC427112PT24916",
                                                        "organeRef": "PO59051",
                                                        "reunionRef": "RUANR5L15S2017IDC427112",
                                                        "uid": "L15-VD182251R24916"
                                                    },
                                                    {
                                                        "@xsi:type": "DiscussionCommission_Type",
                                                        "actesLegislatifs": null,
                                                        "codeActe": "AN1-COM-FOND-REUNION",
                                                        "dateActe": "2017-07-19T21:15:00.000+02:00",
                                                        "libelleActe": {
                                                            "libelleCourt": "R\u00e9union de commission",
                                                            "nomCanonique": "R\u00e9union de commission"
                                                        },
                                                        "odjRef": "RUANR5L15S2017IDC427113PT24918",
                                                        "organeRef": "PO59051",
                                                        "reunionRef": "RUANR5L15S2017IDC427113",
                                                        "uid": "L15-VD182251R24918"
                                                    },
                                                    {
                                                        "@xsi:type": "DiscussionCommission_Type",
                                                        "actesLegislatifs": null,
                                                        "codeActe": "AN1-COM-FOND-REUNION",
                                                        "dateActe": "2017-07-24T15:10:00.000+02:00",
                                                        "libelleActe": {
                                                            "libelleCourt": "R\u00e9union de commission",
                                                            "nomCanonique": "R\u00e9union de commission"
                                                        },
                                                        "odjRef": "RUANR5L15S2017IDC427135PT24967",
                                                        "organeRef": "PO59051",
                                                        "reunionRef": "RUANR5L15S2017IDC427135",
                                                        "uid": "L15-VD182251R24967"
                                                    },
                                                    {
                                                        "@xsi:type": "DepotRapport_Type",
                                                        "actesLegislatifs": null,
                                                        "codeActe": "AN1-COM-FOND-RAPPORT",
                                                        "dateActe": "2017-07-20T00:00:00.000+02:00",
                                                        "libelleActe": {
                                                            "libelleCourt": "D\u00e9p\u00f4t de rapport",
                                                            "nomCanonique": "D\u00e9p\u00f4t de rapport"
                                                        },
                                                        "organeRef": "PO59051",
                                                        "texteAdopte": "PRJLANR5L15BTC0105",
                                                        "texteAssocie": "RAPPANR5L15B0105",
                                                        "uid": "L15-VD182355"
                                                    }
                                                ]
                                            },
                                            "codeActe": "AN1-COM-FOND",
                                            "dateActe": null,
                                            "libelleActe": {
                                                "libelleCourt": "Travaux de la commission saisie au fond",
                                                "nomCanonique": "Travaux de la commission saisie au fond"
                                            },
                                            "organeRef": "PO59051",
                                            "uid": "L15-VD182249CF"
                                        },
                                        {
                                            "@xsi:type": "Etape_Type",
                                            "actesLegislatifs": {
                                                "acteLegislatif": [
                                                    {
                                                        "@xsi:type": "SaisieComAvis_Type",
                                                        "actesLegislatifs": null,
                                                        "codeActe": "AN1-COM-AVIS-SAISIE",
                                                        "dateActe": "2017-07-13T00:00:00.000+02:00",
                                                        "libelleActe": {
                                                            "libelleCourt": "Saisine pour avis d'une commission",
                                                            "nomCanonique": "Saisine pour avis d'une commission"
                                                        },
                                                        "organeRef": "PO59048",
                                                        "uid": "L15-VD182250CAS"
                                                    },
                                                    {
                                                        "@xsi:type": "NominRapporteurs_Type",
                                                        "actesLegislatifs": null,
                                                        "codeActe": "AN1-COM-AVIS-NOMIN",
                                                        "dateActe": "2017-07-18T00:00:00.000+02:00",
                                                        "libelleActe": {
                                                            "libelleCourt": "Nomination de rapporteur",
                                                            "nomCanonique": "Nomination de rapporteur"
                                                        },
                                                        "organeRef": "PO59048",
                                                        "rapporteurs": {
                                                            "rapporteur": {
                                                                "acteurRef": "PA267336",
                                                                "typeRapporteur": "rapporteur pour avis"
                                                            }
                                                        },
                                                        "reunion": null,
                                                        "uid": "L15-VD182272"
                                                    },
                                                    {
                                                        "@xsi:type": "DiscussionCommission_Type",
                                                        "actesLegislatifs": null,
                                                        "codeActe": "AN1-COM-AVIS-REUNION",
                                                        "dateActe": "2017-07-18T20:00:00.000+02:00",
                                                        "libelleActe": {
                                                            "libelleCourt": "R\u00e9union de commission",
                                                            "nomCanonique": "R\u00e9union de commission"
                                                        },
                                                        "odjRef": "RUANR5L15S2017IDC427148PT24903",
                                                        "organeRef": "PO59048",
                                                        "reunionRef": "RUANR5L15S2017IDC427148",
                                                        "uid": "L15-VD182251R24903"
                                                    },
                                                    {
                                                        "@xsi:type": "DepotRapport_Type",
                                                        "actesLegislatifs": null,
                                                        "codeActe": "AN1-COM-AVIS-RAPPORT",
                                                        "dateActe": "2017-07-19T00:00:00.000+02:00",
                                                        "libelleActe": {
                                                            "libelleCourt": "D\u00e9p\u00f4t de rapport",
                                                            "nomCanonique": "D\u00e9p\u00f4t de rapport"
                                                        },
                                                        "organeRef": "PO59048",
                                                        "texteAdopte": null,
                                                        "texteAssocie": "AVISANR5L15B0103",
                                                        "uid": "L15-VD182302"
                                                    }
                                                ]
                                            },
                                            "codeActe": "AN1-COM-AVIS",
                                            "dateActe": null,
                                            "libelleActe": {
                                                "libelleCourt": "Travaux d'une commission saisie pour avis",
                                                "nomCanonique": "Travaux d'une commission saisie pour avis"
                                            },
                                            "organeRef": "PO59048",
                                            "uid": "L15-VD182250CA"
                                        }
                                    ]
                                },
                                "codeActe": "AN1-COM",
                                "dateActe": null,
                                "libelleActe": {
                                    "libelleCourt": "Travaux des commissions",
                                    "nomCanonique": "Travaux des commissions"
                                },
                                "organeRef": "PO717460",
                                "uid": "L15-AN1-COM-35824"
                            },
                            {
                                "@xsi:type": "Etape_Type",
                                "actesLegislatifs": {
                                    "acteLegislatif": [
                                        {
                                            "@xsi:type": "DiscussionSeancePublique_Type",
                                            "actesLegislatifs": null,
                                            "codeActe": "AN1-DEBATS-SEANCE",
                                            "dateActe": "2017-07-24T00:00:00.000+02:00",
                                            "libelleActe": {
                                                "libelleCourt": "Discussion en s\u00e9ance publique",
                                                "nomCanonique": "Discussion en s\u00e9ance publique"
                                            },
                                            "odjRef": "RUANR5L15S2017IDS20625PT34946",
                                            "organeRef": "PO717460",
                                            "reunionRef": "RUANR5L15S2017IDS20625",
                                            "uid": "L15-VD182265S34946"
                                        },
                                        {
                                            "@xsi:type": "DiscussionSeancePublique_Type",
                                            "actesLegislatifs": null,
                                            "codeActe": "AN1-DEBATS-SEANCE",
                                            "dateActe": "2017-07-24T00:00:00.000+02:00",
                                            "libelleActe": {
                                                "libelleCourt": "Discussion en s\u00e9ance publique",
                                                "nomCanonique": "Discussion en s\u00e9ance publique"
                                            },
                                            "odjRef": "RUANR5L15S2017IDS20626PT35028",
                                            "organeRef": "PO717460",
                                            "reunionRef": "RUANR5L15S2017IDS20626",
                                            "uid": "L15-VD182265S35028"
                                        },
                                        {
                                            "@xsi:type": "DiscussionSeancePublique_Type",
                                            "actesLegislatifs": null,
                                            "codeActe": "AN1-DEBATS-SEANCE",
                                            "dateActe": "2017-07-28T00:00:00.000+02:00",
                                            "libelleActe": {
                                                "libelleCourt": "Discussion en s\u00e9ance publique",
                                                "nomCanonique": "Discussion en s\u00e9ance publique"
                                            },
                                            "odjRef": "RUANR5L15S2017IDS20662PT35045",
                                            "organeRef": "PO717460",
                                            "reunionRef": "RUANR5L15S2017IDS20662",
                                            "uid": "L15-VD182265S35045"
                                        },
                                        {
                                            "@xsi:type": "DiscussionSeancePublique_Type",
                                            "actesLegislatifs": null,
                                            "codeActe": "AN1-DEBATS-SEANCE",
                                            "dateActe": "2017-07-28T00:00:00.000+02:00",
                                            "libelleActe": {
                                                "libelleCourt": "Discussion en s\u00e9ance publique",
                                                "nomCanonique": "Discussion en s\u00e9ance publique"
                                            },
                                            "odjRef": "RUANR5L15S2017IDS20663PT35047",
                                            "organeRef": "PO717460",
                                            "reunionRef": "RUANR5L15S2017IDS20663",
                                            "uid": "L15-VD182265S35047"
                                        },
                                        {
                                            "@xsi:type": "Decision_Type",
                                            "actesLegislatifs": null,
                                            "codeActe": "AN1-DEBATS-DEC",
                                            "dateActe": "2017-07-28T00:00:00.000+02:00",
                                            "libelleActe": {
                                                "libelleCourt": "D\u00e9cision",
                                                "nomCanonique": "D\u00e9cision"
                                            },
                                            "organeRef": "PO717460",
                                            "reunionRef": "RUANR5L15S2017IDS20663",
                                            "statutConclusion": {
                                                "fam_code": "TSORTF05",
                                                "libelle": "modifi\u00e9"
                                            },
                                            "textesAssocies": {
                                                "texteAssocie": {
                                                    "refTexteAssocie": "PRJLANR5L15BTA0009",
                                                    "typeTexte": "BTA"
                                                }
                                            },
                                            "uid": "L15-VD182469DEC",
                                            "voteRefs": {
                                                "voteRef": "VTANR5L15V104"
                                            }
                                        }
                                    ]
                                },
                                "codeActe": "AN1-DEBATS",
                                "dateActe": null,
                                "libelleActe": {
                                    "libelleCourt": "Discussion en s\u00e9ance publique",
                                    "nomCanonique": "Discussion en s\u00e9ance publique"
                                },
                                "organeRef": "PO717460",
                                "uid": "L15-AN1-DEBATS-35824"
                            }
                        ]
                    },
                    "codeActe": "AN1",
                    "dateActe": null,
                    "libelleActe": {
                        "libelleCourt": "1\u00e8re lecture",
                        "nomCanonique": "1\u00e8re lecture (2\u00e8me assembl\u00e9e saisie)"
                    },
                    "organeRef": "PO717460",
                    "uid": "L15-AN1-35824"
                },
                {
                    "@xsi:type": "Etape_Type",
                    "actesLegislatifs": {
                        "acteLegislatif": [
                            {
                                "@xsi:type": "DepotInitiativeNavette_Type",
                                "actesLegislatifs": null,
                                "codeActe": "CMP-DEPOT",
                                "dateActe": "2017-07-29T00:00:00.000+02:00",
                                "depotInitialLectureDefinitiveRef": null,
                                "libelleActe": {
                                    "libelleCourt": "D\u00e9p\u00f4t d'un projet de loi",
                                    "nomCanonique": "D\u00e9p\u00f4t d'un projet de loi"
                                },
                                "organeRef": "PO733952",
                                "provenance": "PO717460",
                                "texteAssocie": "PRJLSNR5S279B0693",
                                "uid": "L15-VD182470DIN"
                            },
                            {
                                "@xsi:type": "RenvoiCMP_Type",
                                "actesLegislatifs": null,
                                "codeActe": "CMP-SAISIE",
                                "dateActe": "2017-07-29T00:00:00.000+02:00",
                                "initiateur": {
                                    "acteurs": {
                                        "acteur": {
                                            "acteurRef": "PA345619",
                                            "mandatRef": "PM725692"
                                        }
                                    }
                                },
                                "libelleActe": {
                                    "libelleCourt": "Convocation d'une CMP",
                                    "nomCanonique": "Convocation d'une CMP"
                                },
                                "organeRef": "PO733952",
                                "uid": "L15-VD182475CMPS"
                            },
                            {
                                "@xsi:type": "Etape_Type",
                                "actesLegislatifs": {
                                    "acteLegislatif": [
                                        {
                                            "@xsi:type": "NominRapporteurs_Type",
                                            "actesLegislatifs": null,
                                            "codeActe": "CMP-COM-NOMIN",
                                            "dateActe": "2017-08-01T00:00:00.000+02:00",
                                            "libelleActe": {
                                                "libelleCourt": "Nomination de rapporteur",
                                                "nomCanonique": "Nomination de rapporteur"
                                            },
                                            "organeRef": "PO733952",
                                            "rapporteurs": {
                                                "rapporteur": [
                                                    {
                                                        "acteurRef": "PA721908",
                                                        "typeRapporteur": "rapporteur"
                                                    },
                                                    {
                                                        "acteurRef": "PA429858",
                                                        "typeRapporteur": "rapporteur"
                                                    }
                                                ]
                                            },
                                            "reunion": null,
                                            "uid": "L15-VD182488"
                                        },
                                        {
                                            "@xsi:type": "DepotRapport_Type",
                                            "actesLegislatifs": null,
                                            "codeActe": "CMP-COM-RAPPORT-AN",
                                            "dateActe": "2017-08-01T00:00:00.000+02:00",
                                            "libelleActe": {
                                                "libelleCourt": "D\u00e9p\u00f4t du rapport d'une CMP",
                                                "nomCanonique": "D\u00e9p\u00f4t du rapport d'une CMP"
                                            },
                                            "organeRef": "PO717460",
                                            "texteAdopte": null,
                                            "texteAssocie": "RAPPANR5L15B0121",
                                            "uid": "L15-VD182490"
                                        },
                                        {
                                            "@xsi:type": "DepotRapport_Type",
                                            "actesLegislatifs": null,
                                            "codeActe": "CMP-COM-RAPPORT-SN",
                                            "dateActe": "2017-08-01T00:00:00.000+02:00",
                                            "libelleActe": {
                                                "libelleCourt": "D\u00e9p\u00f4t du rapport d'une CMP",
                                                "nomCanonique": "D\u00e9p\u00f4t du rapport d'une CMP"
                                            },
                                            "organeRef": "PO78718",
                                            "texteAdopte": "PRJLSNR5S279BTC0702",
                                            "texteAssocie": "RAPPSNR5S279B0701",
                                            "uid": "L15-VD182510"
                                        }
                                    ]
                                },
                                "codeActe": "CMP-COM",
                                "dateActe": null,
                                "libelleActe": {
                                    "libelleCourt": "Commission Mixte Paritaire",
                                    "nomCanonique": "Commission Mixte Paritaire"
                                },
                                "organeRef": "PO733952",
                                "uid": "L15-VD182475COM"
                            },
                            {
                                "@xsi:type": "Decision_Type",
                                "actesLegislatifs": null,
                                "codeActe": "CMP-DEC",
                                "dateActe": "2017-08-01T00:00:00.000+02:00",
                                "libelleActe": {
                                    "libelleCourt": "D\u00e9cision de la CMP",
                                    "nomCanonique": "D\u00e9cision de la CMP"
                                },
                                "organeRef": "PO733952",
                                "reunionRef": null,
                                "statutConclusion": {
                                    "fam_code": "TCCMP02",
                                    "libelle": "D\u00e9saccord"
                                },
                                "uid": "L15-VD182475DEC",
                                "voteRefs": null
                            }
                        ]
                    },
                    "codeActe": "CMP",
                    "dateActe": null,
                    "libelleActe": {
                        "libelleCourt": "Commission Mixte Paritaire",
                        "nomCanonique": "Commission Mixte Paritaire"
                    },
                    "organeRef": "PO733952",
                    "uid": "L15-CMP-35824"
                },
                {
                    "@xsi:type": "Etape_Type",
                    "actesLegislatifs": {
                        "acteLegislatif": [
                            {
                                "@xsi:type": "DepotInitiativeNavette_Type",
                                "actesLegislatifs": null,
                                "codeActe": "ANNLEC-DEPOT",
                                "dateActe": "2017-08-01T00:00:00.000+02:00",
                                "depotInitialLectureDefinitiveRef": null,
                                "libelleActe": {
                                    "libelleCourt": "D\u00e9p\u00f4t d'une initiative en navette",
                                    "nomCanonique": "D\u00e9p\u00f4t d'une initiative en navette"
                                },
                                "organeRef": "PO717460",
                                "provenance": "PO733952",
                                "texteAssocie": "PRJLANR5L15B0122",
                                "uid": "L15-VD182493DIN"
                            },
                            {
                                "@xsi:type": "Etape_Type",
                                "actesLegislatifs": {
                                    "acteLegislatif": {
                                        "@xsi:type": "Etape_Type",
                                        "actesLegislatifs": {
                                            "acteLegislatif": [
                                                {
                                                    "@xsi:type": "SaisieComFond_Type",
                                                    "actesLegislatifs": null,
                                                    "codeActe": "ANNLEC-COM-FOND-SAISIE",
                                                    "dateActe": "2017-08-01T00:00:00.000+02:00",
                                                    "libelleActe": {
                                                        "libelleCourt": "Renvoi en commission au fond",
                                                        "nomCanonique": "Renvoi en commission au fond"
                                                    },
                                                    "organeRef": "PO59051",
                                                    "uid": "L15-VD182494CFS"
                                                },
                                                {
                                                    "@xsi:type": "DiscussionCommission_Type",
                                                    "actesLegislatifs": null,
                                                    "codeActe": "ANNLEC-COM-FOND-REUNION",
                                                    "dateActe": "2017-08-02T09:35:00.000+02:00",
                                                    "libelleActe": {
                                                        "libelleCourt": "R\u00e9union de commission",
                                                        "nomCanonique": "R\u00e9union de commission"
                                                    },
                                                    "odjRef": "RUANR5L15S2017IDC427197PT24940",
                                                    "organeRef": "PO59051",
                                                    "reunionRef": "RUANR5L15S2017IDC427197",
                                                    "uid": "L15-VD182500R24940"
                                                },
                                                {
                                                    "@xsi:type": "DiscussionCommission_Type",
                                                    "actesLegislatifs": null,
                                                    "codeActe": "ANNLEC-COM-FOND-REUNION",
                                                    "dateActe": "2017-08-03T09:05:00.000+02:00",
                                                    "libelleActe": {
                                                        "libelleCourt": "R\u00e9union de commission",
                                                        "nomCanonique": "R\u00e9union de commission"
                                                    },
                                                    "odjRef": "RUANR5L15S2017IDC427198PT24941",
                                                    "organeRef": "PO59051",
                                                    "reunionRef": "RUANR5L15S2017IDC427198",
                                                    "uid": "L15-VD182500R24941"
                                                },
                                                {
                                                    "@xsi:type": "DepotRapport_Type",
                                                    "actesLegislatifs": null,
                                                    "codeActe": "ANNLEC-COM-FOND-RAPPORT",
                                                    "dateActe": "2017-08-02T00:00:00.000+02:00",
                                                    "libelleActe": {
                                                        "libelleCourt": "D\u00e9p\u00f4t de rapport",
                                                        "nomCanonique": "D\u00e9p\u00f4t de rapport"
                                                    },
                                                    "organeRef": "PO59051",
                                                    "texteAdopte": "PRJLANR5L15BTC0124",
                                                    "texteAssocie": "RAPPANR5L15B0124",
                                                    "uid": "L15-VD182514"
                                                }
                                            ]
                                        },
                                        "codeActe": "ANNLEC-COM-FOND",
                                        "dateActe": null,
                                        "libelleActe": {
                                            "libelleCourt": "Travaux de la commission saisie au fond",
                                            "nomCanonique": "Travaux de la commission saisie au fond"
                                        },
                                        "organeRef": "PO59051",
                                        "uid": "L15-VD182494CF"
                                    }
                                },
                                "codeActe": "ANNLEC-COM",
                                "dateActe": null,
                                "libelleActe": {
                                    "libelleCourt": "Travaux des commissions",
                                    "nomCanonique": "Travaux des commissions"
                                },
                                "organeRef": "PO717460",
                                "uid": "L15-ANNLEC-COM-35824"
                            },
                            {
                                "@xsi:type": "Etape_Type",
                                "actesLegislatifs": {
                                    "acteLegislatif": [
                                        {
                                            "@xsi:type": "DiscussionSeancePublique_Type",
                                            "actesLegislatifs": null,
                                            "codeActe": "ANNLEC-DEBATS-SEANCE",
                                            "dateActe": "2017-08-03T00:00:00.000+02:00",
                                            "libelleActe": {
                                                "libelleCourt": "Discussion en s\u00e9ance publique",
                                                "nomCanonique": "Discussion en s\u00e9ance publique"
                                            },
                                            "odjRef": "RUANR5L15S2017IDS20657PT35015",
                                            "organeRef": "PO717460",
                                            "reunionRef": "RUANR5L15S2017IDS20657",
                                            "uid": "L15-VD182503S35015"
                                        },
                                        {
                                            "@xsi:type": "DiscussionSeancePublique_Type",
                                            "actesLegislatifs": null,
                                            "codeActe": "ANNLEC-DEBATS-SEANCE",
                                            "dateActe": "2017-08-03T00:00:00.000+02:00",
                                            "libelleActe": {
                                                "libelleCourt": "Discussion en s\u00e9ance publique",
                                                "nomCanonique": "Discussion en s\u00e9ance publique"
                                            },
                                            "odjRef": "RUANR5L15S2017IDS20658PT35017",
                                            "organeRef": "PO717460",
                                            "reunionRef": "RUANR5L15S2017IDS20658",
                                            "uid": "L15-VD182503S35017"
                                        },
                                        {
                                            "@xsi:type": "Decision_Type",
                                            "actesLegislatifs": null,
                                            "codeActe": "ANNLEC-DEBATS-DEC",
                                            "dateActe": "2017-08-03T00:00:00.000+02:00",
                                            "libelleActe": {
                                                "libelleCourt": "D\u00e9cision",
                                                "nomCanonique": "D\u00e9cision"
                                            },
                                            "organeRef": "PO717460",
                                            "reunionRef": "RUANR5L15S2017IDS20658",
                                            "statutConclusion": {
                                                "fam_code": "TSORTF01",
                                                "libelle": "adopt\u00e9"
                                            },
                                            "textesAssocies": {
                                                "texteAssocie": {
                                                    "refTexteAssocie": "PRJLANR5L15BTA0017",
                                                    "typeTexte": "BTA"
                                                }
                                            },
                                            "uid": "L15-VD182540DEC",
                                            "voteRefs": {
                                                "voteRef": "VTANR5L15V117"
                                            }
                                        }
                                    ]
                                },
                                "codeActe": "ANNLEC-DEBATS",
                                "dateActe": null,
                                "libelleActe": {
                                    "libelleCourt": "Discussion en s\u00e9ance publique",
                                    "nomCanonique": "Discussion en s\u00e9ance publique"
                                },
                                "organeRef": "PO717460",
                                "uid": "L15-ANNLEC-DEBATS-35824"
                            }
                        ]
                    },
                    "codeActe": "ANNLEC",
                    "dateActe": null,
                    "libelleActe": {
                        "libelleCourt": "Nouvelle lecture",
                        "nomCanonique": "Nouvelle Lecture"
                    },
                    "organeRef": "PO717460",
                    "uid": "L15-ANNLEC-35824"
                },
                {
                    "@xsi:type": "Etape_Type",
                    "actesLegislatifs": {
                        "acteLegislatif": [
                            {
                                "@xsi:type": "DepotInitiativeNavette_Type",
                                "actesLegislatifs": null,
                                "codeActe": "SNNLEC-DEPOT",
                                "dateActe": "2017-08-03T00:00:00.000+02:00",
                                "depotInitialLectureDefinitiveRef": null,
                                "libelleActe": {
                                    "libelleCourt": "D\u00e9p\u00f4t d'une initiative en navette",
                                    "nomCanonique": "D\u00e9p\u00f4t d'une initiative en navette"
                                },
                                "organeRef": "PO78718",
                                "provenance": "PO717460",
                                "texteAssocie": "PRJLSNR5S279B0707",
                                "uid": "L15-VD182543DIN"
                            },
                            {
                                "@xsi:type": "Etape_Type",
                                "actesLegislatifs": {
                                    "acteLegislatif": {
                                        "@xsi:type": "Etape_Type",
                                        "actesLegislatifs": {
                                            "acteLegislatif": [
                                                {
                                                    "@xsi:type": "SaisieComFond_Type",
                                                    "actesLegislatifs": null,
                                                    "codeActe": "SNNLEC-COM-FOND-SAISIE",
                                                    "dateActe": "2017-08-03T00:00:00.000+02:00",
                                                    "libelleActe": {
                                                        "libelleCourt": "Renvoi en commission au fond",
                                                        "nomCanonique": "Renvoi en commission au fond"
                                                    },
                                                    "organeRef": "PO211495",
                                                    "uid": "L15-VD182544CFS"
                                                },
                                                {
                                                    "@xsi:type": "DepotRapport_Type",
                                                    "actesLegislatifs": null,
                                                    "codeActe": "SNNLEC-COM-FOND-RAPPORT",
                                                    "dateActe": "2017-08-04T00:00:00.000+02:00",
                                                    "libelleActe": {
                                                        "libelleCourt": "D\u00e9p\u00f4t de rapport",
                                                        "nomCanonique": "D\u00e9p\u00f4t de rapport"
                                                    },
                                                    "organeRef": "PO211495",
                                                    "texteAdopte": "PRJLSNR5S279BTC0709",
                                                    "texteAssocie": "RAPPSNR5S279B0708",
                                                    "uid": "L15-VD182549"
                                                }
                                            ]
                                        },
                                        "codeActe": "SNNLEC-COM-FOND",
                                        "dateActe": null,
                                        "libelleActe": {
                                            "libelleCourt": "Travaux de la commission saisie au fond",
                                            "nomCanonique": "Travaux de la commission saisie au fond"
                                        },
                                        "organeRef": "PO211495",
                                        "uid": "L15-VD182544CF"
                                    }
                                },
                                "codeActe": "SNNLEC-COM",
                                "dateActe": null,
                                "libelleActe": {
                                    "libelleCourt": "Travaux des commissions",
                                    "nomCanonique": "Travaux des commissions"
                                },
                                "organeRef": "PO78718",
                                "uid": "L15-SNNLEC-COM-35824"
                            },
                            {
                                "@xsi:type": "Etape_Type",
                                "actesLegislatifs": {
                                    "acteLegislatif": [
                                        {
                                            "@xsi:type": "DiscussionSeancePublique_Type",
                                            "actesLegislatifs": null,
                                            "codeActe": "SNNLEC-DEBATS-SEANCE",
                                            "dateActe": "2017-08-04T00:00:00.000+02:00",
                                            "libelleActe": {
                                                "libelleCourt": "Discussion en s\u00e9ance publique",
                                                "nomCanonique": "Discussion en s\u00e9ance publique"
                                            },
                                            "odjRef": "RUSNR5L15S2017IDS20666PT35056",
                                            "organeRef": "PO78718",
                                            "reunionRef": "RUSNR5L15S2017IDS20666",
                                            "uid": "L15-VD182545S35056"
                                        },
                                        {
                                            "@xsi:type": "Decision_Type",
                                            "actesLegislatifs": null,
                                            "codeActe": "SNNLEC-DEBATS-DEC",
                                            "dateActe": "2017-08-04T00:00:00.000+02:00",
                                            "libelleActe": {
                                                "libelleCourt": "D\u00e9cision",
                                                "nomCanonique": "D\u00e9cision"
                                            },
                                            "organeRef": "PO78718",
                                            "reunionRef": "RUSNR5L15S2017IDS20666",
                                            "statutConclusion": {
                                                "fam_code": "TSORTF05",
                                                "libelle": "modifi\u00e9"
                                            },
                                            "textesAssocies": {
                                                "texteAssocie": {
                                                    "refTexteAssocie": "PRJLSNR5S279BTA0128",
                                                    "typeTexte": "BTA"
                                                }
                                            },
                                            "uid": "L15-VD182550DEC",
                                            "voteRefs": null
                                        }
                                    ]
                                },
                                "codeActe": "SNNLEC-DEBATS",
                                "dateActe": null,
                                "libelleActe": {
                                    "libelleCourt": "Discussion en s\u00e9ance publique",
                                    "nomCanonique": "Discussion en s\u00e9ance publique"
                                },
                                "organeRef": "PO78718",
                                "uid": "L15-SNNLEC-DEBATS-35824"
                            }
                        ]
                    },
                    "codeActe": "SNNLEC",
                    "dateActe": null,
                    "libelleActe": {
                        "libelleCourt": "Nouvelle lecture",
                        "nomCanonique": "Nouvelle Lecture"
                    },
                    "organeRef": "PO78718",
                    "uid": "L15-SNNLEC-35824"
                },
                {
                    "@xsi:type": "Etape_Type",
                    "actesLegislatifs": {
                        "acteLegislatif": [
                            {
                                "@xsi:type": "DepotInitiativeNavette_Type",
                                "actesLegislatifs": null,
                                "codeActe": "ANLDEF-DEPOT",
                                "dateActe": "2017-08-04T00:00:00.000+02:00",
                                "depotInitialLectureDefinitiveRef": "PRJLANR5L15B0126",
                                "libelleActe": {
                                    "libelleCourt": "D\u00e9p\u00f4t d'une initiative en navette",
                                    "nomCanonique": "D\u00e9p\u00f4t d'une initiative en navette"
                                },
                                "organeRef": "PO717460",
                                "provenance": "PO78718",
                                "texteAssocie": "PRJLANR5L15BTA0017",
                                "uid": "L15-VD182552DIN"
                            },
                            {
                                "@xsi:type": "Etape_Type",
                                "actesLegislatifs": {
                                    "acteLegislatif": {
                                        "@xsi:type": "Etape_Type",
                                        "actesLegislatifs": {
                                            "acteLegislatif": [
                                                {
                                                    "@xsi:type": "SaisieComFond_Type",
                                                    "actesLegislatifs": null,
                                                    "codeActe": "ANLDEF-COM-FOND-SAISIE",
                                                    "dateActe": "2017-08-04T00:00:00.000+02:00",
                                                    "libelleActe": {
                                                        "libelleCourt": "Renvoi en commission au fond",
                                                        "nomCanonique": "Renvoi en commission au fond"
                                                    },
                                                    "organeRef": "PO59051",
                                                    "uid": "L15-VD182553CFS"
                                                },
                                                {
                                                    "@xsi:type": "DiscussionCommission_Type",
                                                    "actesLegislatifs": null,
                                                    "codeActe": "ANLDEF-COM-FOND-REUNION",
                                                    "dateActe": "2017-08-09T11:35:00.000+02:00",
                                                    "libelleActe": {
                                                        "libelleCourt": "R\u00e9union de commission",
                                                        "nomCanonique": "R\u00e9union de commission"
                                                    },
                                                    "odjRef": "RUANR5L15S2017IDC427201PT24945",
                                                    "organeRef": "PO59051",
                                                    "reunionRef": "RUANR5L15S2017IDC427201",
                                                    "uid": "L15-VD182638R24945"
                                                },
                                                {
                                                    "@xsi:type": "DepotRapport_Type",
                                                    "actesLegislatifs": null,
                                                    "codeActe": "ANLDEF-COM-FOND-RAPPORT",
                                                    "dateActe": "2017-08-09T00:00:00.000+02:00",
                                                    "libelleActe": {
                                                        "libelleCourt": "D\u00e9p\u00f4t de rapport",
                                                        "nomCanonique": "D\u00e9p\u00f4t de rapport"
                                                    },
                                                    "organeRef": "PO59051",
                                                    "texteAdopte": null,
                                                    "texteAssocie": "RAPPANR5L15B0145",
                                                    "uid": "L15-VD182592"
                                                }
                                            ]
                                        },
                                        "codeActe": "ANLDEF-COM-FOND",
                                        "dateActe": null,
                                        "libelleActe": {
                                            "libelleCourt": "Travaux de la commission saisie au fond",
                                            "nomCanonique": "Travaux de la commission saisie au fond"
                                        },
                                        "organeRef": "PO59051",
                                        "uid": "L15-VD182553CF"
                                    }
                                },
                                "codeActe": "ANLDEF-COM",
                                "dateActe": null,
                                "libelleActe": {
                                    "libelleCourt": "Travaux des commissions",
                                    "nomCanonique": "Travaux des commissions"
                                },
                                "organeRef": "PO717460",
                                "uid": "L15-ANLDEF-COM-35824"
                            },
                            {
                                "@xsi:type": "Etape_Type",
                                "actesLegislatifs": {
                                    "acteLegislatif": [
                                        {
                                            "@xsi:type": "DiscussionSeancePublique_Type",
                                            "actesLegislatifs": null,
                                            "codeActe": "ANLDEF-DEBATS-SEANCE",
                                            "dateActe": "2017-08-09T00:00:00.000+02:00",
                                            "libelleActe": {
                                                "libelleCourt": "Discussion en s\u00e9ance publique",
                                                "nomCanonique": "Discussion en s\u00e9ance publique"
                                            },
                                            "odjRef": "RUANR5L15S2017IDS20664PT35050",
                                            "organeRef": "PO717460",
                                            "reunionRef": "RUANR5L15S2017IDS20664",
                                            "uid": "L15-VD182554S35050"
                                        },
                                        {
                                            "@xsi:type": "Decision_Type",
                                            "actesLegislatifs": null,
                                            "codeActe": "ANLDEF-DEBATS-DEC",
                                            "dateActe": "2017-08-09T00:00:00.000+02:00",
                                            "libelleActe": {
                                                "libelleCourt": "D\u00e9cision",
                                                "nomCanonique": "D\u00e9cision"
                                            },
                                            "organeRef": "PO717460",
                                            "reunionRef": "RUANR5L15S2017IDS20664",
                                            "statutConclusion": {
                                                "fam_code": "TSORTF01",
                                                "libelle": "adopt\u00e9"
                                            },
                                            "textesAssocies": {
                                                "texteAssocie": {
                                                    "refTexteAssocie": "PRJLANR5L15BTA0018",
                                                    "typeTexte": "BTA"
                                                }
                                            },
                                            "uid": "L15-VD182595DEC",
                                            "voteRefs": {
                                                "voteRef": "VTANR5L15V119"
                                            }
                                        }
                                    ]
                                },
                                "codeActe": "ANLDEF-DEBATS",
                                "dateActe": null,
                                "libelleActe": {
                                    "libelleCourt": "Discussion en s\u00e9ance publique",
                                    "nomCanonique": "Discussion en s\u00e9ance publique"
                                },
                                "organeRef": "PO717460",
                                "uid": "L15-ANLDEF-DEBATS-35824"
                            }
                        ]
                    },
                    "codeActe": "ANLDEF",
                    "dateActe": null,
                    "libelleActe": {
                        "libelleCourt": "Lecture d\u00e9finitive",
                        "nomCanonique": "Lecture d\u00e9finitive"
                    },
                    "organeRef": "PO717460",
                    "uid": "L15-ANLDEF-35824"
                },
                {
                    "@xsi:type": "Etape_Type",
                    "actesLegislatifs": {
                        "acteLegislatif": [
                            {
                                "@xsi:type": "SaisineConseilConstit_Type",
                                "actesLegislatifs": null,
                                "casSaisine": {
                                    "fam_code": "TSCCONT07",
                                    "libelle": "De droit (article 61 alin\u00e9a 1 de la Constitution)"
                                },
                                "codeActe": "CC-SAISIE-DROIT",
                                "dateActe": "2017-08-10T00:00:00.000+02:00",
                                "initiateurs": null,
                                "libelleActe": {
                                    "libelleCourt": "Saisine du conseil constitutionnel",
                                    "nomCanonique": "Saisine du conseil constitutionnel"
                                },
                                "motif": "En application de l'article 61\u00a72 de la Constitution",
                                "organeRef": "PO76034",
                                "uid": "L15-VD182598CCS2045"
                            },
                            {
                                "@xsi:type": "ConclusionEtapeCC_Type",
                                "actesLegislatifs": null,
                                "anneeDecision": "2017",
                                "codeActe": "CC-CONCLUSION",
                                "dateActe": "2017-09-08T00:00:00.000+02:00",
                                "libelleActe": {
                                    "libelleCourt": "Conclusion du conseil constitutionnel",
                                    "nomCanonique": "Conclusion du conseil constitutionnel"
                                },
                                "numDecision": "753",
                                "organeRef": "PO76034",
                                "statutConclusion": {
                                    "fam_code": "TCD02",
                                    "libelle": "Partiellement conforme"
                                },
                                "uid": "L15-VD182598CCC",
                                "urlConclusion": "http://www.conseil-constitutionnel.fr/decision/2017/2017753dc.htm"
                            }
                        ]
                    },
                    "codeActe": "CC",
                    "dateActe": null,
                    "libelleActe": {
                        "libelleCourt": "Conseil constitutionnel",
                        "nomCanonique": "Conseil constitutionnel"
                    },
                    "organeRef": "PO76034",
                    "uid": "L15-CC-35824"
                },
                {
                    "@xsi:type": "Etape_Type",
                    "actesLegislatifs": {
                        "acteLegislatif": {
                            "@xsi:type": "Promulgation_Type",
                            "actesLegislatifs": null,
                            "codeActe": "PROM-PUB",
                            "codeLoi": "2017-1338",
                            "dateActe": "2017-09-15T00:00:00.000+02:00",
                            "infoJO": {
                                "dateJO": "2017-09-16+02:00",
                                "numJO": "217",
                                "pageJO": null,
                                "referenceNOR": "JUSC1715752L",
                                "typeJO": "JO_LOI_DECRET",
                                "urlLegifrance": "http://www.legifrance.gouv.fr/WAspad/UnTexteDeJorf?numjo=JUSC1715752L"
                            },
                            "libelleActe": {
                                "libelleCourt": "Promulgation d'une loi",
                                "nomCanonique": "Promulgation d'une loi"
                            },
                            "organeRef": "PO717136",
                            "texteLoiRef": "PRJLANR5L15BTA0018",
                            "titreLoi": "pour la confiance dans la vie politique",
                            "uid": "L15-VD182658PL",
                            "urlEcheancierLoi": "https://www.legifrance.gouv.fr/dossierlegislatif/JORFDOLE000034924617/?detailType=ECHEANCIER&detailId="
                        }
                    },
                    "codeActe": "PROM",
                    "dateActe": null,
                    "libelleActe": {
                        "libelleCourt": "Promulgation de la loi",
                        "nomCanonique": "Promulgation de la loi"
                    },
                    "organeRef": "PO717136",
                    "uid": "L15-PROM-35824"
                }
            ]
        },
        "fusionDossier": null,
        "initiateur": {
            "acteurs": {
                "acteur": {
                    "acteurRef": "PA345619",
                    "mandatRef": "PM717221"
                }
            }
        },
        "legislature": "15",
        "procedureParlementaire": {
            "code": "5",
            "libelle": "Projet ou proposition de loi organique"
        },
        "titreDossier": {
            "senatChemin": "http://www.senat.fr/dossier-legislatif/pjl16-580.html",
            "titre": "Confiance dans la vie politique (loi organique)",
            "titreChemin": "retablissement_confiance_action_publique"
        },
        "uid": "DLR5L15N35824"
    }
}
